<svg id="i-menu" xmlns="http://www.w3.org/2000/svg" viewBox="0 0 32 32" width="32" height="32" fill="currentcolor">
		<path d="M4,8c1-0.6,2-1.1,3-1.5c1,0,2,0,3,0h6h6h3C26,7,27,7.4,28,8c-1,0.6-2,1-3,1.5h-3h-6h-6c-1,0-2,0-3,0C6,9.1,5,8.6,4,8z"/>
		<path d="M4,16c1-0.6,2-1.1,3-1.5c1,0,2,0,3,0h6h6h3c1,0.5,2,0.9,3,1.5c-1,0.6-2,1-3,1.5h-3h-6h-6c-1,0-2,0-3,0C6,17.1,5,16.6,4,16z"/>
		<path d="M4,24c1-0.6,2-1.1,3-1.5c1,0,2,0,3,0h6h6h3c1,0.5,2,0.9,3,1.5c-1,0.6-2,1-3,1.5h-3h-6h-6c-1,0-2,0-3,0C6,25.1,5,24.6,4,24z"/>
</svg>