<?xml version="1.0" encoding="utf-8"?>
<!-- Generator: Adobe Illustrator 27.8.1, SVG Export Plug-In . SVG Version: 6.00 Build 0)  -->
<svg version="1.1" id="Calque_1" xmlns="http://www.w3.org/2000/svg" xmlns:xlink="http://www.w3.org/1999/xlink" x="0px" y="0px"
	 viewBox="0 0 40 40" style="enable-background:new 0 0 40 40;" xml:space="preserve">
<style type="text/css">
	.st0{fill-rule:evenodd;clip-rule:evenodd;fill:#FFFFFF;}
</style>
<path class="st0" d="M38.72,22.33L24.72,12.9v5.56c-2.29,0.3-4.57,0.5-6.85,0.7c-2.48,0.1-5.06,0-7.45-0.5
	c-2.29-0.5-4.57-1.49-6.16-3.28c-1.69-1.89-2.68-4.47-2.98-7.15c0,2.78-0.1,5.56,1.29,8.24c1.39,2.68,3.87,4.67,6.56,5.96
	c2.68,1.39,5.56,2.09,8.34,2.68c2.38,0.5,4.87,0.79,7.25,1.09v5.56L38.72,22.33z"/>
</svg>
