<?xml version="1.0" encoding="utf-8"?>
<!-- Generator: Adobe Illustrator 27.8.1, SVG Export Plug-In . SVG Version: 6.00 Build 0)  -->
<svg version="1.1" id="Calque_1" xmlns="http://www.w3.org/2000/svg" xmlns:xlink="http://www.w3.org/1999/xlink" x="0px" y="0px"
	 viewBox="0 0 40 40" style="enable-background:new 0 0 40 40;" xml:space="preserve">
<style type="text/css">
	.st0{fill:#FFFFFF;}
</style>
<g>
	<path class="st0" d="M35.77,18.06L5.77,6.15C4.4,5.6,2.91,6.62,2.91,8.09v8.24l26.46,2.89c0.93,0.1,0.93,1.45,0,1.56L2.91,23.66
		v8.24c0,1.48,1.49,2.49,2.86,1.94l29.99-11.91C37.53,21.25,37.53,18.75,35.77,18.06z"/>
</g>
</svg>
